%YAML 1.1
%TAG !u! tag:unity3d.com,2011:
--- !u!1045 &1
EditorBuildSettings:
  m_ObjectHideFlags: 0
  serializedVersion: 2
  m_Scenes:
  - enabled: 1
    path: Assets/Scenes/Menu.unity
    guid: 93876507e586d334a8dfda7de0807fb8
  - enabled: 1
    path: Assets/Scenes/Game.unity
    guid: c5adb29abfa5cde49948489085c7c3ad
